Is Mass Incarceration A Racial Issue?
…
incarceration_dataset %>%
  select(jurisdiction:prisoner_count, crimes_estimated:state_population) %>%
  as_tibble(incarceration_dataset)

# A tibble: 816 × 6
   jurisdiction includes_jails  year prisoner_count crimes_estimated
   <chr>        <chr>          <int>          <int> <chr>           
 1 FEDERAL      False           2001         149852 ""              
 2 ALABAMA      False           2001          24741 "False"         
 3 ALASKA       True            2001           4570 "False"         
 4 ARIZONA      False           2001          27710 "False"         
 5 ARKANSAS     False           2001          11489 "False"         
 6 CALIFORNIA   False           2001         157142 "False"         
 7 COLORADO     False           2001          17278 "False"         
 8 CONNECTICUT  True            2001          17507 "False"         
 9 DELAWARE     True            2001           6841 "False"         
10 FLORIDA      False           2001          72404 "False"         
# … with 806 more rows, and 1 more variable: state_population <dbl>

Next, I’ll use filter() to remove rows that don’t showcase data from 2016 because I’m only interested in the most recent data from the dataset. I’ll also use filter to remove the rows labeled as “FEDERAL” because the “FEDERAL” rows have missing data.

incarceration_dataset %>%
  select(jurisdiction:prisoner_count, crimes_estimated:state_population) %>%
  filter(jurisdiction != "FEDERAL" & year == "2016") %>%
  as_tibble(incarceration_dataset)

# A tibble: 50 × 6
   jurisdiction includes_jails  year prisoner_count crimes_estimated
   <chr>        <chr>          <int>          <int> <chr>           
 1 ALABAMA      False           2016          23745 False           
 2 ALASKA       True            2016           4378 False           
 3 ARIZONA      False           2016          42248 False           
 4 ARKANSAS     False           2016          15833 False           
 5 CALIFORNIA   False           2016         129416 False           
 6 COLORADO     False           2016          19486 False           
 7 CONNECTICUT  True            2016          15040 False           
 8 DELAWARE     True            2016           6334 False           
 9 FLORIDA      False           2016          98010 False           
10 GEORGIA      False           2016          53433 False           
# … with 40 more rows, and 1 more variable: state_population <dbl>
…
# A tibble: 0 × 6
# … with 6 variables: jurisdiction <chr>, includes_jails <chr>,
#   year <int>, prisoner_count <int>, crimes_estimated <chr>,
#   state_population <dbl>

The tibble came back empty, so I can conclude that the values are exact for each state. Now, I can use select() to remove the crimes_estimated column. I’ll also remove the year column because all of the data I’m working with is from the same year now.

incarceration_dataset %>%
  select(jurisdiction:prisoner_count, crimes_estimated:state_population) %>%
  filter(jurisdiction != "FEDERAL" & year == "2016") %>%
  select(jurisdiction:includes_jails, prisoner_count, state_population) %>%
  as_tibble(incarceration_dataset)

# A tibble: 50 × 4
   jurisdiction includes_jails prisoner_count state_population
   <chr>        <chr>                   <int>            <dbl>
 1 ALABAMA      False                   23745          4860545
 2 ALASKA       True                     4378           741522
 3 ARIZONA      False                   42248          6908642
 4 ARKANSAS     False                   15833          2988231
 5 CALIFORNIA   False                  129416         39296476
 6 COLORADO     False                   19486          5530105
 7 CONNECTICUT  True                    15040          3587685
 8 DELAWARE     True                     6334           952698
 9 FLORIDA      False                   98010         20656589
10 GEORGIA      False                   53433         10313620
# … with 40 more rows

Finding Incarceration Rate For Each State

To really get a feel for how high the incarceration rate is in each state, I have use mutate() to divide prisoner_count by state_population, but first, I need to convert the state_population column into integer format.

incarceration_dataset %>%
  select(jurisdiction:prisoner_count, crimes_estimated:state_population) %>%
  filter(jurisdiction != "FEDERAL" & year == "2016") %>%
  select(jurisdiction:includes_jails, prisoner_count, state_population) %>%
  mutate(state_population=as.integer(state_population)) %>%
  as_tibble(incarceration_dataset)

# A tibble: 50 × 4
   jurisdiction includes_jails prisoner_count state_population
   <chr>        <chr>                   <int>            <int>
 1 ALABAMA      False                   23745          4860545
 2 ALASKA       True                     4378           741522
 3 ARIZONA      False                   42248          6908642
 4 ARKANSAS     False                   15833          2988231
 5 CALIFORNIA   False                  129416         39296476
 6 COLORADO     False                   19486          5530105
 7 CONNECTICUT  True                    15040          3587685
 8 DELAWARE     True                     6334           952698
 9 FLORIDA      False                   98010         20656589
10 GEORGIA      False                   53433         10313620
# … with 40 more rows

With the state_population column in integer format, I can now use mutate() to divide the prisoner_count column by the state_population column and formed a new column labeled as percent_incarcerated. I also used mutate to multiply the percent_incarcerated by 100 somthe correct percentage would be shown.

incarceration_dataset %>%
  filter(jurisdiction != "FEDERAL" & year == "2016") %>%
  select(jurisdiction:includes_jails, prisoner_count, state_population) %>%
  rename("State"=jurisdiction) %>%
  mutate(state_population=as.integer(state_population)) %>%
  mutate(percent_incarcerated=prisoner_count/state_population) %>%
  mutate(percent_incarcerated=percent_incarcerated*100) %>%
  as_tibble(incarceration_dataset)

# A tibble: 50 × 5
   State       includes_jails prisoner_count state_population
   <chr>       <chr>                   <int>            <int>
 1 ALABAMA     False                   23745          4860545
 2 ALASKA      True                     4378           741522
 3 ARIZONA     False                   42248          6908642
 4 ARKANSAS    False                   15833          2988231
 5 CALIFORNIA  False                  129416         39296476
 6 COLORADO    False                   19486          5530105
 7 CONNECTICUT True                    15040          3587685
 8 DELAWARE    True                     6334           952698
 9 FLORIDA     False                   98010         20656589
10 GEORGIA     False                   53433         10313620
# … with 40 more rows, and 1 more variable:
#   percent_incarcerated <dbl>

Now that I have all the data I need, I’ll use select() to remove the prisoner_count and incarcerated_percentage columns and I’ll save my cleaned data as cleaned_incarceration_dataset.

incarceration_1 <- filter(incarceration_dataset, jurisdiction != "FEDERAL" & year == "2016")
incarceration_2 <- select(incarceration_1, jurisdiction:includes_jails, prisoner_count, state_population)
incarceration_3 <- mutate(incarceration_2, state_population=as.integer(state_population))
incarceration_4 <- mutate(incarceration_3, percent_incarcerated=prisoner_count/state_population)
incarceration_5 <- mutate(incarceration_4, percent_incarcerated=percent_incarcerated*100)
cleaned_incarceration_dataset <- select(incarceration_5, jurisdiction:includes_jails, percent_incarcerated)
as_tibble(cleaned_incarceration_dataset)

# A tibble: 50 × 3
   jurisdiction includes_jails percent_incarcerated
   <chr>        <chr>                         <dbl>
 1 ALABAMA      False                         0.489
 2 ALASKA       True                          0.590
 3 ARIZONA      False                         0.612
 4 ARKANSAS     False                         0.530
 5 CALIFORNIA   False                         0.329
 6 COLORADO     False                         0.352
 7 CONNECTICUT  True                          0.419
 8 DELAWARE     True                          0.665
 9 FLORIDA      False                         0.474
10 GEORGIA      False                         0.518
# … with 40 more rows
…
colnames(ethnoracial_dataset)

 [1] "State"                   "WhiteNonHispanicPerc"   
 [3] "BlackNonHispanicPerc"    "IndianNonHispanicPerc"  
 [5] "AsianNonHispanicPerc"    "HawaiianNonHispanicPerc"
 [7] "OtherNonHispanicPerc"    "HispanicTotal"          
 [9] "Total"                   "HispanicPerc"           

By using colnames, I can see that I can can use select() eliminate the “HispanicTotal” and “Total” columns since I’m only interested in the state columns that end in “Perc”.

ethnoracial_dataset %>%
  select(State:OtherNonHispanicPerc, HispanicPerc) %>%
  as_tibble(ethnoracial_dataset)

# A tibble: 50 × 8
   State       WhiteNonHispanicPerc BlackNonHispanic… IndianNonHispan…
   <chr>                      <dbl>             <dbl>            <dbl>
 1 Alabama                    0.655            0.265            0.0047
 2 Alaska                     0.606            0.031            0.144 
 3 Arizona                    0.547            0.0421           0.0392
 4 Arkansas                   0.724            0.152            0.0059
 5 California                 0.372            0.0552           0.0036
 6 Colorado                   0.681            0.0395           0.0054
 7 Connecticut                0.669            0.0991           0.0016
 8 Delaware                   0.623            0.217            0.003 
 9 Florida                    0.539            0.153            0.002 
10 Georgia                    0.527            0.312            0.0019
# … with 40 more rows, and 4 more variables:
#   AsianNonHispanicPerc <dbl>, HawaiianNonHispanicPerc <dbl>,
#   OtherNonHispanicPerc <dbl>, HispanicPerc <dbl>

Now, I’ll use rename() to rename the columns becasue they take up a lot of space. I’ll also rename the “State” column as jurisdiction for the sake of being able to merge this dataset with the cleaned_incarceration_dataset.

ethnoracial_dataset%>%
  select(State:OtherNonHispanicPerc, HispanicPerc) %>%
  rename("jurisdiction" = State, "White" = WhiteNonHispanicPerc, "Black" = BlackNonHispanicPerc, "Indigenous"= IndianNonHispanicPerc, "Asian" = AsianNonHispanicPerc, "Hawaiian" = HawaiianNonHispanicPerc, "Other" = OtherNonHispanicPerc, "Hispanic" = HispanicPerc) %>%
  as_tibble(ethnoracial_dataset)

# A tibble: 50 × 8
   jurisdiction White  Black Indigenous  Asian Hawaiian  Other
   <chr>        <dbl>  <dbl>      <dbl>  <dbl>    <dbl>  <dbl>
 1 Alabama      0.655 0.265      0.0047 0.0134   0.0003 0.0187
 2 Alaska       0.606 0.031      0.144  0.0609   0.0122 0.0749
 3 Arizona      0.547 0.0421     0.0392 0.0321   0.0018 0.0243
 4 Arkansas     0.724 0.152      0.0059 0.015    0.0029 0.0249
 5 California   0.372 0.0552     0.0036 0.143    0.0036 0.0328
 6 Colorado     0.681 0.0395     0.0054 0.0311   0.0014 0.0267
 7 Connecticut  0.669 0.0991     0.0016 0.0448   0.0002 0.0247
 8 Delaware     0.623 0.217      0.003  0.0383   0.0003 0.0263
 9 Florida      0.539 0.153      0.002  0.0268   0.0005 0.0227
10 Georgia      0.527 0.312      0.0019 0.0395   0.0005 0.0236
# … with 40 more rows, and 1 more variable: Hispanic <dbl>
…
    jurisdiction == "Rhode Island" ~ "RHODE ISLAND",
    jurisdiction == "South Carolina" ~ "SOUTH CAROLINA",
    jurisdiction == "South Dakota" ~ "SOUTH DAKOTA",
    jurisdiction == "Tennessee" ~ "TENNESSEE",
    jurisdiction == "Texas" ~ "TEXAS",
    jurisdiction == "Utah" ~ "UTAH",
    jurisdiction == "Vermont" ~ "VERMONT",
    jurisdiction == "Virginia" ~ "VIRGINIA",
    jurisdiction == "Washington" ~ "WASHINGTON",
    jurisdiction == "West Virginia" ~ "WEST VIRGINIA",
    jurisdiction == "Wisconsin" ~ "WISCONSIN",
    jurisdiction == "Wyoming" ~ "WYOMING"))
as_tibble(cleaned_ethnoracial_dataset)

# A tibble: 50 × 8
   jurisdiction White  Black Indigenous  Asian Hawaiian  Other
   <chr>        <dbl>  <dbl>      <dbl>  <dbl>    <dbl>  <dbl>
 1 ALABAMA      0.655 0.265      0.0047 0.0134   0.0003 0.0187
 2 ALASKA       0.606 0.031      0.144  0.0609   0.0122 0.0749
 3 ARIZONA      0.547 0.0421     0.0392 0.0321   0.0018 0.0243
 4 ARKANSAS     0.724 0.152      0.0059 0.015    0.0029 0.0249
 5 CALIFORNIA   0.372 0.0552     0.0036 0.143    0.0036 0.0328
 6 COLORADO     0.681 0.0395     0.0054 0.0311   0.0014 0.0267
 7 CONNECTICUT  0.669 0.0991     0.0016 0.0448   0.0002 0.0247
 8 DELAWARE     0.623 0.217      0.003  0.0383   0.0003 0.0263
 9 FLORIDA      0.539 0.153      0.002  0.0268   0.0005 0.0227
10 GEORGIA      0.527 0.312      0.0019 0.0395   0.0005 0.0236
# … with 40 more rows, and 1 more variable: Hispanic <dbl>

Now that all of my datasets are in cleaned format, I can use merge to get my full dataset.

full_dataset=merge(cleaned_incarceration_dataset, cleaned_ethnoracial_dataset)
as_tibble(full_dataset)

# A tibble: 50 × 10
   jurisdiction includes_jails percent_incarcerated White  Black
   <chr>        <chr>                         <dbl> <dbl>  <dbl>
 1 ALABAMA      False                         0.489 0.655 0.265 
 2 ALASKA       True                          0.590 0.606 0.031 
 3 ARIZONA      False                         0.612 0.547 0.0421
 4 ARKANSAS     False                         0.530 0.724 0.152 
 5 CALIFORNIA   False                         0.329 0.372 0.0552
 6 COLORADO     False                         0.352 0.681 0.0395
 7 CONNECTICUT  True                          0.419 0.669 0.0991
 8 DELAWARE     True                          0.665 0.623 0.217 
 9 FLORIDA      False                         0.474 0.539 0.153 
10 GEORGIA      False                         0.518 0.527 0.312 
# … with 40 more rows, and 5 more variables: Indigenous <dbl>,
#   Asian <dbl>, Hawaiian <dbl>, Other <dbl>, Hispanic <dbl>
…
