School Characteristics
…
Summary Data

Now let’s take a look at some summary of the dataset in terms of its student-teacher ratio in each state.

data_stats <- data_sub %>%
  group_by(STABR) %>%
  summarise(STABR = STABR, AvgRatio = mean(STUTERATIO), SDRatio = sd(STUTERATIO))
data_summary <- distinct(data_stats)
data_summary

# A tibble: 53 x 3
# Groups:   STABR [53]
   STABR AvgRatio SDRatio
   <chr>    <dbl>   <dbl>
 1 AK        16.0    3.02
 2 AL        18.1    2.64
 3 AR        13.2    2.81
 4 AZ        18.9    3.77
 5 CA        23.4    3.47
 6 CO        16.4    3.71
 7 CT        12.0    1.92
 8 DC        13.1    4.02
 9 DE        14.9    2.63
10 FL        17.2    3.66
# ... with 43 more rows
…
