Understanding The Fundamentals Of Hotel Bookings
…
After determining that we have 32 columns, the colnames() functions helps us look at the titles for each of the variables we have data for

The five variables we will be looking at in this paper are 1. Hotel 2. Date of Arrival(Year) 3. Date of Arrival(Month) 4. Repeated Guest 5. Market Segment

In order to separate and piping selected variables I am using the package dplyr and using the select() function as seen below, our new file will be called d

## # A tibble: 119,390 x 5
##    hotel     arrival_date_year arrival_date_mon is_repeated_gue market_segment
##    <chr>                 <dbl> <chr>                        <dbl> <chr>         
##  1 Resort H              2015 July                             0 Direct        
##  2 Resort H              2015 July                             0 Direct        
##  3 Resort H              2015 July                             0 Direct        
##  4 Resort H              2015 July                             0 Corporate     
##  5 Resort H              2015 July                             0 Online TA     
##  6 Resort H              2015 July                             0 Online TA     
##  7 Resort H              2015 July                             0 Direct        
##  8 Resort H              2015 July                             0 Direct        
##  9 Resort H              2015 July                             0 Online TA     
## 10 Resort H              2015 July                             0 Offline TA/TO 
## #  with 119,380 more rows
…
 *The graph shows the number of repeated guests in each city hotel and resort hotel, you can also see in the number of repeated guests each year.

## # A tibble: 26 x 3
## # Groups:   arrival_date_year, arrival_date_month [26]
##    arrival_date_year arrival_date_month     n
##                <dbl> <chr>              <int>
##  1              2015 August              3889
##  2              2015 December            2920
##  3              2015 July                2776
##  4              2015 November            2340
##  5              2015 October             4957
##  6              2015 September           5114
##  7              2016 April               5428
##  8              2016 August              5063
##  9              2016 December            3860
## 10              2016 February            3891
## #  with 16 more rows
…
