final_project_sathvik_thogaru
…
lets try to find the 13 missing city values using the venues from the same data set. lets find where is Sharjah Cricket stadium and Dubai Intern. cricket stadium from the data

(uniques <-  unique(ipl_matches[c("city","venue")]))

# A tibble: 38 x 2
   city       venue                                     
   <chr>      <chr>                                     
 1 Bangalore  M Chinnaswamy Stadium                     
 2 Chandigarh Punjab Cricket Association Stadium, Mohali
 3 Delhi      Feroz Shah Kotla                          
 4 Mumbai     Wankhede Stadium                          
 5 Kolkata    Eden Gardens                              
 6 Jaipur     Sawai Mansingh Stadium                    
 7 Hyderabad  Rajiv Gandhi International Stadium, Uppal 
 8 Chennai    MA Chidambaram Stadium, Chepauk           
 9 Mumbai     Dr DY Patil Sports Academy                
10 Cape Town  Newlands                                  
# ... with 28 more rows

(uniques <- uniques[!is.na(uniques$city),])

# A tibble: 36 x 2
   city       venue                                     
   <chr>      <chr>                                     
 1 Bangalore  M Chinnaswamy Stadium                     
 2 Chandigarh Punjab Cricket Association Stadium, Mohali
 3 Delhi      Feroz Shah Kotla                          
 4 Mumbai     Wankhede Stadium                          
 5 Kolkata    Eden Gardens                              
 6 Jaipur     Sawai Mansingh Stadium                    
 7 Hyderabad  Rajiv Gandhi International Stadium, Uppal 
 8 Chennai    MA Chidambaram Stadium, Chepauk           
 9 Mumbai     Dr DY Patil Sports Academy                
10 Cape Town  Newlands                                  
# ... with 26 more rows
…
(table_toppers_in_each_season <- season_team_wins %>% 
  slice(1:2))

# A tibble: 26 x 3
# Groups:   season [13]
   season team                   wins
   <chr>  <chr>                 <int>
 1 2008   Rajasthan Royals         13
 2 2008   Kings XI Punjab          10
 3 2009   Delhi Daredevils         10
 4 2009   Deccan Chargers           9
 5 2010   Mumbai Indians           11
 6 2010   Chennai Super Kings       9
 7 2011   Chennai Super Kings      11
 8 2011   Mumbai Indians           10
 9 2012   Kolkata Knight Riders    12
10 2012   Delhi Daredevils         11
# ... with 16 more rows
…
result_margin_when_batting_first <- ipl_matches %>%
  select(result,result_margin) %>%
  filter(result=="runs") %>%
  group_by(result_margin,result) %>%
  tally(sort = TRUE,name="freq") %>%
  arrange(desc(freq))

result_margin_when_batting_first

# A tibble: 91 x 3
# Groups:   result_margin [91]
   result_margin result  freq
           <dbl> <chr>  <int>
 1            10 runs      13
 2            14 runs      13
 3             4 runs      11
 4             1 runs      10
 5             7 runs      10
 6            13 runs      10
 7            15 runs      10
 8            37 runs      10
 9             9 runs       9
10            12 runs       9
# ... with 81 more rows
…
